68.591
68.593
68.593
68.59
68.593
68.593
68.595
68.593
68.592
68.591
68.591
68.59
68.588
68.592
68.593
68.591
68.594
68.596
68.593
68.596
68.595
68.595
68.594
68.596
68.594
68.59
68.59
68.586
68.591
68.586
68.587
68.588
68.59
68.591
68.588
68.588
68.587
68.586
68.589
68.587
68.588
68.59
68.591
68.584
68.589
68.588
68.589
68.588
68.59
68.59
68.598
68.608
68.63
68.648
68.664
68.688
68.7
68.709
68.716
68.724
68.731
68.729
68.732
68.733
68.735
68.733
68.733
68.732
68.733
68.729
68.728
68.73
68.722
68.721
68.721
68.727
68.73
68.73
68.728
68.73
68.731
68.727
68.728
68.728
68.73
68.727
68.727
68.732
68.729
68.729
68.728
68.728
68.722
68.726
68.718
68.724
68.725
68.724
68.724
68.727
68.726
68.722
68.719
68.718
68.716
68.719
68.716
68.714
68.718
68.721
68.714
68.712
68.713
68.712
68.711
68.719
68.718
68.712
68.718
68.718
68.714
68.717
68.714
68.717
68.716
68.711
68.713
68.715
68.716
68.711
68.711
68.711
68.712
68.711
68.708
68.703
68.703
68.707
68.708
68.704
68.7
68.702
68.697
68.687
68.672
68.663
68.655
68.649
68.646
68.635
68.625
68.615
68.611
68.604
68.601
68.594
68.591
68.587
68.587
68.582
68.578
68.576
68.574
68.571
68.563
68.564
68.559
68.559
68.559
68.555
68.554
68.552
68.55
68.548
68.552
68.551
68.55
68.549
68.546
68.545
68.543
68.542
68.541
68.543
68.543
68.543
68.541
68.539
68.54
68.54
68.539
68.539
68.538
68.539
68.536
68.537
68.537
68.532
68.534
68.534
68.535
68.535
68.534
68.534
68.533
68.531
68.533
68.534
68.535
68.535
68.533
68.53
68.53
68.53
68.529
68.528
68.528
68.528
68.526
68.526
68.526
68.526
68.529
68.529
68.527
68.527
68.529
68.527
68.526
68.525
68.525
68.526
68.526
68.526
68.526
68.526
68.53
68.528
68.525
68.526
68.526
68.527
68.53
68.531
68.529
68.529
68.53
68.53
68.531
68.532
68.536
68.533
68.538
68.539
68.54
68.538
68.537
68.539
68.541
68.541
68.541
68.539
68.541
68.541
68.541
68.544
68.545
68.545
68.543
68.543
68.544
68.542
68.546
68.545
68.546
68.546
68.547
68.547
68.548
68.548
68.547
68.547
68.546
68.545
68.549
68.547
68.544
68.548
68.547
68.546
68.545
68.548
68.548
68.548
68.548
68.548
68.545
68.548
68.546
68.548
68.548
68.55
68.547
68.549
68.547
68.548
68.548
68.55
68.548
68.549
68.548
68.547
68.546
68.545
68.544
68.544
68.544
68.543
68.543
68.545
68.543
68.544
68.543
68.543
68.549
68.546
68.546
68.549
68.551
68.551
68.549
68.551
68.547
68.551
68.551
68.55
68.552
68.551
68.549
68.55
68.548
68.547
68.549
68.548
68.549
68.547
68.549
68.547
68.547
68.548
68.549
68.547
68.548
68.55
68.549
68.548
68.549
68.549
68.549
68.549
68.548
68.549
68.548
68.549
68.548
68.548
68.547
68.545
68.546
68.545
68.545
68.547
68.542
68.542
68.544
68.54
68.54
68.541
68.535
68.535
68.536
68.533
68.536
68.534
68.533
68.531
68.532
68.531
68.53
68.529
68.53
68.53
68.528
68.531
68.529
68.53
68.529
68.528
68.528
68.527
68.525
68.529
68.526
68.526
68.526
68.525
68.525
68.522
68.526
68.525
68.527
68.526
68.523
68.525
68.523
68.523
68.526
68.525
68.525
68.527
68.525
68.524
68.524
68.523
68.524
68.521
68.526
68.527
68.522
68.523
68.522
68.521
68.523
68.523
68.525
68.524
68.524
68.522
68.52
68.52
68.521
68.524
68.521
68.523
68.521
68.518
68.52
68.523
68.523
68.52
68.521
68.522
68.522
68.522
68.525
68.522
68.522
68.521
68.521
68.521
68.521
68.522
68.521
68.522
68.521
68.522
68.521
68.521
68.522
68.524
68.523
68.52
68.521
68.52
68.52
68.522
68.519
68.519
68.52
68.521
68.521
68.521
68.524
68.52
68.519
68.519
68.521
68.521
68.523
68.521
68.52
68.521
68.519
68.519
68.519
68.519
68.52
68.518
68.521
68.522
68.521
68.519
68.518
68.518
68.52
68.521
68.517
68.519
68.519
68.518
68.521
68.519
68.52
68.518
68.518
68.52
68.521
68.52
68.52
68.519
68.518
68.52
68.522
68.522
68.52
68.518
68.519
68.519
68.519
68.52
68.519
68.519
68.521
68.52
68.52
68.52
68.519
68.52
68.521
68.52
68.521
68.521
68.519
68.521
68.523
68.523
68.523
68.524
68.523
68.528
68.529
68.53
68.532
68.535
68.536
68.537
68.537
68.537
68.54
68.54
68.54
68.541
68.543
68.542
68.542
68.546
68.549
68.549
68.55
68.547
68.549
68.549
68.551
68.553
68.551
68.553
68.552
68.553
68.553
68.554
68.552
68.555
68.554
68.554
68.559
68.561
68.558
68.561
68.559
68.559
68.561
68.561
68.564
68.558
68.56
68.562
68.561
68.559
68.559
68.561
68.561
68.561
68.562
68.564
68.56
68.563
68.564
68.565
68.566
68.565
68.565
68.565
68.565
68.562
68.564
68.565
68.566
68.567
68.567
68.565
68.567
68.566
68.569
68.567
68.565
68.569
68.568
68.568
68.568
68.567
68.567
68.569
68.569
68.57
68.571
68.568
68.569
68.566
68.567
68.57
68.567
68.567
68.567
68.567
68.571
68.571
68.572
68.574
68.573
68.572
68.574
68.575
68.576
68.573
68.574
68.572
68.572
68.57
68.574
68.573
68.572
68.572
68.574
68.575
68.573
68.572
68.571
68.572
68.573
68.57
68.574
68.574
68.569
68.572
68.573
68.574
68.574
68.572
68.573
68.57
68.574
68.572
68.574
68.573
68.571
68.576
68.575
68.571
68.572
68.573
68.573
68.57
68.571
68.572
68.572
68.569
68.57
68.574
68.572
68.569
68.573
68.574
68.573
68.57
68.572
68.573
68.572
68.575
68.573
68.568
68.571
68.567
68.571
68.571
68.57
68.569
68.57
68.568
68.573
68.569
68.568
68.569
68.564
68.563
68.563
68.565
68.565
68.566
68.565
68.566
68.563
68.559
68.561
68.562
68.561
68.56
68.56
68.559
68.559
68.556
68.558
68.559
68.556
68.557
68.557
68.554
68.557
68.555
68.554
68.554
68.554
68.554
68.554
68.555
68.554
68.553
68.555
68.554
68.552
68.555
68.555
68.556
68.556
68.555
68.556
68.554
68.554
68.555
68.554
68.555
68.555
68.554
68.554
68.553
68.554
68.555
68.553
68.549
68.551
68.552
68.552
68.552
68.548
68.551
68.553
68.551
68.551
68.55
68.552
68.553
68.551
68.551
68.553
68.553
68.548
68.551
68.552
68.549
68.552
68.552
68.551
68.551
68.55
68.553
68.552
68.552
68.552
68.554
68.553
68.551
68.551
68.552
68.551
68.552
68.554
68.553
68.553
68.554
68.55
68.551
68.551
68.552
68.549
68.551
68.551
68.55
68.549
68.549
68.551
68.552
68.551
68.551
68.549
68.548
68.549
68.551
68.552
68.551
68.551
68.546
68.549
68.549
68.552
68.549
68.549
68.548
68.547
68.547
68.549
68.548
68.548
68.548
68.548
68.548
68.548
68.546
68.542
68.543
68.545
68.55
68.56
68.572
68.585
68.594
68.602
68.606
68.612
68.611
68.615
68.619
68.618
68.618
68.625
68.623
68.624
68.626
68.625
68.629
68.63
68.625
68.627
68.632
68.632
68.633
68.63
68.638
68.635
68.635
68.635
68.636
68.638
68.64
68.64
68.64
68.641
68.643
68.642
68.642
68.641
68.641
68.64
68.637
68.636
68.633
68.637
68.641
68.643
68.642
68.641
68.64
68.64
68.64
68.648
68.641
68.641
68.642
68.647
68.646
68.644
68.648
68.637
68.639
68.64
68.64
68.643
68.637
68.644
68.642
68.642
68.642
68.646
68.644
68.645
68.642
68.642
68.646
68.643
68.64
68.643
68.642
68.641
68.642
68.641
68.647
68.646
68.646
68.648
68.648
68.642
68.642
68.637
68.636
68.641
68.643
68.644
68.641
68.645
68.638
68.642
68.641
68.643
68.647
68.641
68.645
68.645
68.639
68.646
68.643
68.643
68.642
68.645
68.638
68.639
68.64
68.643
68.642
68.639
68.644
68.638
68.641
68.638
68.64
68.639
68.638
68.641
68.641
68.638
68.636
68.637
68.632
68.634
68.633
68.632
68.635
68.63
68.635
68.635
68.632
68.634
68.628
68.623
68.622
68.616
68.602
68.597
68.593
68.591
68.582
68.578
68.577
68.57
68.564
68.558
68.557
68.554
68.553
68.549
68.545
68.543
68.539
68.534
68.536
68.532
68.529
68.53
68.525
68.523
68.523
68.521
68.519
68.518
68.517
68.518
68.515
68.514
68.512
68.514
68.509
68.51
68.511
68.511
68.51
68.508
68.508
68.508
68.509
68.507
68.508
68.506
68.506
68.505
68.505
68.505
68.504
68.505
68.503
68.502
68.502
68.502
68.502
68.501
68.502
68.501
68.503
68.502
68.501
68.502
68.499
68.499
68.5
68.499
68.499
68.498
68.498
68.5
68.5
68.499
68.498
68.497
68.497
68.498
68.497
68.495
68.494
68.498
68.495
68.496
68.497
68.497
68.496
68.495
68.497
68.497
68.498
68.497
68.499
68.498
68.498
68.497
68.498
68.498
68.499
68.498
68.497
68.497
68.493
68.498
68.495
68.496
68.498
68.497
68.496
68.497
68.497
68.496
68.496
68.496
68.497
68.495
68.495
68.495
68.494
68.495
68.494
68.492
68.496
68.493
68.495
68.496
68.494
68.494
68.494
68.493
68.493
68.493
68.495
68.494
68.494
68.494
68.494
68.493
68.494
68.493
68.494
